…
``` r
# prop test for all cities
results_df = homicide %>%
  pivot_wider(names_from = "outcome", values_from = "n_obs") %>%
  mutate(total = solved + unsolved) %>%
  mutate(prop_test = map2(.x = unsolved, .y = total, ~prop.test(x = .x, n = .y)),
  tidy_tests = map(.x = prop_test, ~broom::tidy(.x))) %>%
  select(-prop_test) %>% 
  unnest(tidy_tests) %>% 
  select(city_state, estimate, conf.low, conf.high)

results_df
```

    ## # A tibble: 50 x 4
    ## # Groups:   city_state [50]
    ##    city_state     estimate conf.low conf.high
    ##    <chr>             <dbl>    <dbl>     <dbl>
    ##  1 Albuquerque_NM    0.386    0.337     0.438
    ##  2 Atlanta_GA        0.383    0.353     0.415
    ##  3 Baltimore_MD      0.646    0.628     0.663
    ##  4 Baton Rouge_LA    0.462    0.414     0.511
    ##  5 Birmingham_AL     0.434    0.399     0.469
    ##  6 Boston_MA         0.505    0.465     0.545
    ##  7 Buffalo_NY        0.612    0.569     0.654
    ##  8 Charlotte_NC      0.300    0.266     0.336
    ##  9 Chicago_IL        0.736    0.724     0.747
    ## 10 Cincinnati_OH     0.445    0.408     0.483
    ## # … with 40 more rows
…
path_df
```

    ## # A tibble: 160 x 4
    ##     week observation arm   id   
    ##    <dbl>       <dbl> <chr> <chr>
    ##  1     1        0.2  con   01   
    ##  2     2       -1.31 con   01   
    ##  3     3        0.66 con   01   
    ##  4     4        1.96 con   01   
    ##  5     5        0.23 con   01   
    ##  6     6        1.09 con   01   
    ##  7     7        0.05 con   01   
    ##  8     8        1.94 con   01   
    ##  9     1        1.13 con   02   
    ## 10     2       -0.88 con   02   
    ## # … with 150 more rows
…
