Data Science HW 5
…
Now I will generate and extract both the proportion of unsolved homicides and the confidence interval for each of the cities in the homicide dataset.

# prop test for all cities
results_df = homicide %>%
  pivot_wider(names_from = "outcome", values_from = "n_obs") %>%
  mutate(total = solved + unsolved) %>%
  mutate(prop_test = map2(.x = unsolved, .y = total, ~prop.test(x = .x, n = .y)),
  tidy_tests = map(.x = prop_test, ~broom::tidy(.x))) %>%
  select(-prop_test) %>% 
  unnest(tidy_tests) %>% 
  select(city_state, estimate, conf.low, conf.high)

results_df

## # A tibble: 50 x 4
## # Groups:   city_state [50]
##    city_state     estimate conf.low conf.high
##    <chr>             <dbl>    <dbl>     <dbl>
##  1 Albuquerque NM    0.386    0.337     0.438
##  2 Atlanta GA        0.383    0.353     0.415
##  3 Baltimore MD      0.646    0.628     0.663
##  4 Baton Rouge LA    0.462    0.414     0.511
##  5 Birmingham AL     0.434    0.399     0.469
##  6 Boston MA         0.505    0.465     0.545
##  7 Buffalo NY        0.612    0.569     0.654
##  8 Charlotte NC      0.300    0.266     0.336
##  9 Chicago IL        0.736    0.724     0.747
## 10 Cincinnati OH     0.445    0.408     0.483
## #  with 40 more rows
…
